<?xml version="1.0" encoding="UTF-8"?>
<svg width="127px" height="35px" viewBox="0 0 127 35" version="1.1" xmlns="http://www.w3.org/2000/svg" xmlns:xlink="http://www.w3.org/1999/xlink">
    <!-- Generator: Sketch 64 (93537) - https://sketch.com -->
    <title>logo@3x</title>
    <desc>Created with Sketch.</desc>
    <defs>
        <polygon id="path-1" points="0 35.2308141 126.238901 35.2308141 126.238901 0 0 0"></polygon>
    </defs>
    <g id="Symbols" stroke="none" stroke-width="1" fill="none" fill-rule="evenodd">
        <g id="footer" transform="translate(-39.000000, -8.000000)">
            <g id="Group-32" transform="translate(-8.000000, 0.000000)">
                <g id="logo" transform="translate(47.000000, 8.000000)">
                    <path d="M26.9165387,30.1899213 C18.1140848,36.2731057 7.07172065,35.3458843 2.25202913,28.1188968 C-2.56736241,20.8922093 0.661263956,10.1021238 9.46371792,4.01923936 C18.2658719,-2.06394507 29.308536,-1.13702363 34.1279276,6.08996386 C38.9476191,13.3169513 35.7186927,24.1067369 26.9165387,30.1899213" id="Fill-1" fill="#000000"></path>
                    <path d="M26.6396622,28.8764226 C18.3753626,34.5912383 8.0079413,33.7201121 3.48312479,26.9307875 C-1.04169171,20.1417629 1.98955138,10.005322 10.253851,4.29050637 C18.5178506,-1.42430929 28.8855719,-0.553183116 33.4103884,6.23584149 C37.9352049,13.0251661 34.9036618,23.161607 26.6396622,28.8764226" id="Fill-3" fill="#FF3344"></path>
                    <path d="M28.3335286,12.3553229 C27.5952912,11.6239848 26.3917932,10.1859067 26.0600213,8.32876411 C25.9598298,7.76721171 25.7846447,7.18286123 25.3742795,6.78659482 C21.2712272,2.82772106 15.7069988,2.59355019 11.7998299,3.29939037 C10.406748,3.2081981 6.49027993,2.05749562 5.07769965,3.72415437 C4.2440703,4.70687108 4.60823944,6.25174015 4.84101971,7.0817698 C4.88091633,7.22305782 5.21688785,7.98799299 5.11339662,8.09208417 C5.09779795,8.10768285 5.380374,8.23667192 5.36507529,8.2522706 C0.758065752,13.9613867 -0.952989231,22.6687488 3.10926648,27.6243288 C8.32132474,33.9825899 17.7630245,33.5377276 23.1298697,30.8625543 C10.0824755,35.066398 11.8052295,16.6227612 20.3638041,20.4810342 C21.2754268,20.8919993 23.2246616,21.6143381 24.3702645,21.3647593 C25.9493307,21.0203885 26.3332982,19.7445966 26.7433634,18.7180836 L28.6257039,13.6926095 C28.7999891,13.2276489 28.6862988,12.7047932 28.3335286,12.3553229" id="Fill-5" fill="#000000"></path>
                    <path d="M24.1796907,13.6708014 C24.1541929,13.7955908 23.9736082,13.7841917 23.9631091,13.6573025 C23.8257207,11.9783448 23.0484866,9.17808213 17.722138,9.49995485 C17.5769503,9.50865411 17.5427532,9.41266225 17.6840412,9.37726525 C20.0871376,8.77281648 22.8883001,9.12468666 23.7456275,9.35506713 C23.9619092,9.4132622 23.7315287,10.0468085 23.7678256,10.2678898 C23.8824159,10.9635308 24.5105627,12.058438 24.1796907,13.6708014 M17.0066986,6.28242755 C16.5207398,6.22063278 16.1622702,5.88736103 16.2066664,5.53819062 C16.2510627,5.18902022 16.6812262,4.95593997 17.167485,5.01773473 C17.6537438,5.07952949 18.0116135,5.41250127 17.9675172,5.76197166 C17.923121,6.11114206 17.4929574,6.34422231 17.0066986,6.28242755 M19.3426007,6.05294699 C19.4145946,5.82526629 19.7301678,5.72207504 20.0472409,5.82256652 C20.3640141,5.923058 20.5625973,6.18913545 20.4903034,6.41681616 C20.4180095,6.64449686 20.1027362,6.74768811 19.7859631,6.64719663 C19.46889,6.54670515 19.2703068,6.28092767 19.3426007,6.05294699 M11.4142726,6.08114461 C9.32494968,6.07784488 8.40852735,7.8356959 7.81967726,8.6852239 C7.73358456,8.55983453 5.97333374,5.97165388 6.71787064,5.22711699 C7.44080937,4.50417826 10.0829854,5.32100903 11.468268,5.81956677 C11.6146556,5.87206233 11.5696594,6.08144458 11.4142726,6.08114461 M6.90505478,12.4532046 C6.47639111,13.190842 5.74805284,13.5670102 5.27799267,13.2940333 C4.80763254,13.0207565 4.77403539,12.2015259 5.20239908,11.4638884 C5.63076278,10.7262509 6.359701,10.3500828 6.82976116,10.6230597 C7.29982132,10.8963365 7.33341847,11.7155671 6.90505478,12.4532046 M4.7821347,16.2130859 C4.66154492,16.8598311 4.22898158,17.3220919 3.81651654,17.2449984 C3.4040515,17.167905 3.16767153,16.5808547 3.28856128,15.9338096 C3.40945104,15.2870644 3.84141443,14.8248036 4.25417945,14.901897 C4.66664449,14.9789905 4.90332443,15.5660407 4.7821347,16.2130859 M3.53604031,20.1415529 C3.28346172,20.128954 3.09267789,19.8334791 3.11037639,19.4816089 C3.12807489,19.1297387 3.34705633,18.854962 3.59963492,18.8675609 C3.85251349,18.8801599 4.04329732,19.1756348 4.02559882,19.527505 C4.00790032,19.8793752 3.7886189,20.1541519 3.53604031,20.1415529 M26.7552724,13.3840257 C26.9385569,13.3768263 27.9374722,13.1851425 27.9374722,13.1851425 C27.9386721,13.1851425 27.9407719,13.1848425 27.9400901,13.1845426 C27.8801771,13.1497455 25.9639395,12.0122419 25.3705898,8.76951676 C25.2664986,8.20136491 25.0700152,7.61581454 24.6434514,7.22614756 C19.5495831,2.57204201 12.2278037,4.24080058 11.8372368,4.70756102 C9.54693087,4.17150645 6.50218892,3.35527563 5.66226011,4.54287498 C5.1550031,5.25921427 5.84584455,6.37751949 6.23041195,7.72980488 C6.26040941,7.8380957 6.37859939,8.19236567 6.25380997,8.31745507 C-4.3124945,19.5047069 3.25676398,36.4727688 20.259023,31.9131553 C19.7919626,32.0190463 19.020428,32.0970397 18.5215702,32.0970397 C14.902077,32.0970397 12.3834905,29.2781786 12.3834905,25.6586854 C12.3834905,24.3909928 12.7446599,23.2078931 13.368007,22.2047781 C11.8747336,23.3770787 10.9001162,25.1700268 10.7855259,27.1666575 C10.7279308,26.9029799 10.6811347,26.6348026 10.6520372,26.3600259 C10.2485714,22.5422495 12.825353,19.1237392 16.4754437,18.4637951 C17.5379536,18.1626207 18.8686408,18.1986176 20.4840039,18.6947756 C21.5120168,19.0100488 23.4123557,20.034162 24.7499424,19.8130808 C25.2275019,19.7338875 25.6009702,19.2848256 26.039833,18.1890184 C26.039833,18.1890184 26.4480984,17.285195 26.4474985,17.285795 C25.7674561,18.2454136 21.7858936,17.5980685 22.5436294,16.1689896 C23.3016651,14.7399107 25.6678646,18.6929757 26.8599635,15.9380092 C26.8599635,15.9380092 26.8602635,15.9380092 26.8602635,15.9377092 L27.2598296,14.8419021 C27.3402228,14.6208208 27.2814278,14.3676423 27.1005431,14.217355 C26.5317914,13.7430952 26.6175841,13.4215225 26.7552724,13.3840257" id="Fill-7" fill="#FFFFFF"></path>
                    <path d="M82.0552556,12.4860518 C82.0552556,12.2190744 82.2247412,12.0735867 82.4917186,12.0735867 L85.3558758,12.0735867 C85.6225532,12.0735867 85.7680409,12.2190744 85.7680409,12.4860518 L85.7680409,23.47982 C85.7680409,27.7031621 83.996691,29.5960017 80.0163284,29.5960017 C77.9534032,29.5960017 76.4976266,29.2075346 75.1867377,28.2608148 C74.9443582,28.1156271 74.9197603,27.8966457 75.0658479,27.6785642 L76.351539,25.7128308 C76.4976266,25.4941493 76.6671122,25.4461534 76.9100916,25.5667431 C77.6867258,26.028404 78.7060394,26.3922732 79.8462428,26.3922732 C81.3026194,26.3922732 82.1521474,25.8343205 82.1278494,24.0383727 C81.448107,24.2324562 80.6960708,24.3779439 79.9197366,24.3779439 C76.9826855,24.3779439 74.7502747,22.4851043 74.7502747,19.1844841 L74.7502747,12.4860518 C74.7502747,12.2190744 74.9197603,12.0735867 75.1867377,12.0735867 L78.050895,12.0735867 C78.3175724,12.0735867 78.46306,12.2190744 78.46306,12.4860518 L78.46306,19.1118902 C78.46306,20.5436689 79.2396942,21.1748154 80.4773893,21.1748154 C81.0599399,21.1748154 81.6910864,21.0287278 82.0552556,20.8346442 L82.0552556,12.4860518 Z" id="Fill-9" fill="#FFFFFF"></path>
                    <path d="M49.815848,14.0337706 C49.815848,12.7504794 48.9297231,11.8181584 47.6041354,11.8181584 L45.1494435,11.8181584 L45.1494435,16.2493828 L47.6041354,16.2493828 C48.9297231,16.2493828 49.815848,15.3170618 49.815848,14.0337706 M53.2007611,14.0337706 C53.2007611,17.0773126 50.8507602,19.3436206 47.750223,19.3436206 L45.1494435,19.3436206 L45.1494435,24.164212 L41.8089266,24.164212 L41.8089266,8.72392062 L47.750223,8.72392062 C50.8468606,8.72392062 53.2007611,10.9857289 53.2007611,14.0337706" id="Fill-11" fill="#FFFFFF"></path>
                    <path d="M49.815848,14.0337706 C49.815848,12.7504794 48.9297231,11.8181584 47.6041354,11.8181584 L45.1494435,11.8181584 L45.1494435,16.2493828 L47.6041354,16.2493828 C48.9297231,16.2493828 49.815848,15.3170618 49.815848,14.0337706 Z M53.2007611,14.0337706 C53.2007611,17.0773126 50.8507602,19.3436206 47.750223,19.3436206 L45.1494435,19.3436206 L45.1494435,24.164212 L41.8089266,24.164212 L41.8089266,8.72392062 L47.750223,8.72392062 C50.8468606,8.72392062 53.2007611,10.9857289 53.2007611,14.0337706 Z" id="Stroke-13" stroke="#FFFFFF" stroke-width="0.5"></path>
                    <mask id="mask-2" fill="white">
                        <use xlink:href="#path-1"></use>
                    </mask>
                    <g id="Clip-16"></g>
                    <polygon id="Fill-15" fill="#FFFFFF" mask="url(#mask-2)" points="54.817654 24.164152 58.0381811 24.164152 58.0381811 8.61287003 54.817654 8.61287003"></polygon>
                    <polygon id="Stroke-17" stroke="#FFFFFF" stroke-width="0.5" mask="url(#mask-2)" points="54.817654 24.164152 58.0381811 24.164152 58.0381811 8.61287003 54.817654 8.61287003"></polygon>
                    <path d="M69.5932318,18.1905483 C69.5932318,16.3193069 68.221448,14.925625 66.3508066,14.925625 C64.4795652,14.925625 63.1038818,16.3232066 63.1038818,18.1905483 C63.1038818,20.05789 64.4795652,21.4554716 66.3508066,21.4554716 C68.221448,21.4554716 69.5932318,20.0617897 69.5932318,18.1905483 L69.5932318,18.1905483 Z M72.7495643,12.235153 L72.7495643,24.1459436 L70.2246783,24.1459436 L69.9481017,23.0804339 C68.9251884,23.975858 67.5909015,24.5008135 66.0883288,24.5008135 C62.5051325,24.5008135 59.8395584,21.7962427 59.8395584,18.1905483 C59.8395584,14.5989527 62.5051325,11.9162801 66.0883288,11.9162801 C67.6172992,11.9162801 68.9719844,12.4547344 70.0014972,13.3729566 L70.345868,12.2345531 L72.7495643,12.235153 Z" id="Fill-18" fill="#FFFFFF" mask="url(#mask-2)"></path>
                    <path d="M69.5932318,18.1905483 C69.5932318,16.3193069 68.221448,14.925625 66.3508066,14.925625 C64.4795652,14.925625 63.1038818,16.3232066 63.1038818,18.1905483 C63.1038818,20.05789 64.4795652,21.4554716 66.3508066,21.4554716 C68.221448,21.4554716 69.5932318,20.0617897 69.5932318,18.1905483 Z M72.7495643,12.235153 L72.7495643,24.1459436 L70.2246783,24.1459436 L69.9481017,23.0804339 C68.9251884,23.975858 67.5909015,24.5008135 66.0883288,24.5008135 C62.5051325,24.5008135 59.8395584,21.7962427 59.8395584,18.1905483 C59.8395584,14.5989527 62.5051325,11.9162801 66.0883288,11.9162801 C67.6172992,11.9162801 68.9719844,12.4547344 70.0014972,13.3729566 L70.345868,12.2345531 L72.7495643,12.235153 Z" id="Stroke-19" stroke="#FFFFFF" stroke-width="0.5" mask="url(#mask-2)"></path>
                    <path d="M94.3076272,21.2964251 L94.3076272,24.164182 L92.020021,24.164182 C89.3991432,24.164182 87.7885797,22.5539185 87.7885797,19.9108425 L87.7885797,12.2287936 L90.1838767,9.3625365 L90.9548113,9.3625365 L90.9548113,12.2530915 L94.2416327,12.2530915 L94.2416327,14.8415721 L91.0094067,14.8415721 L91.0094067,19.4836787 C91.0094067,20.6346811 91.6708506,21.2964251 92.8440512,21.2964251 L94.3076272,21.2964251 Z" id="Fill-20" fill="#FFFFFF" mask="url(#mask-2)"></path>
                    <path d="M94.3076272,21.2964251 L94.3076272,24.164182 L92.020021,24.164182 C89.3991432,24.164182 87.7885797,22.5539185 87.7885797,19.9108425 L87.7885797,12.2287936 L90.1838767,9.3625365 L90.9548113,9.3625365 L90.9548113,12.2530915 L94.2416327,12.2530915 L94.2416327,14.8415721 L91.0094067,14.8415721 L91.0094067,19.4836787 C91.0094067,20.6346811 91.6708506,21.2964251 92.8440512,21.2964251 L94.3076272,21.2964251 Z" id="Stroke-21" stroke="#FFFFFF" stroke-width="0.5" mask="url(#mask-2)"></path>
                    <polygon id="Fill-22" fill="#FFFFFF" mask="url(#mask-2)" points="96.8659903 24.164152 100.086517 24.164152 100.086517 12.2530615 96.8659903 12.2530615"></polygon>
                    <polygon id="Stroke-23" stroke="#FFFFFF" stroke-width="0.5" mask="url(#mask-2)" points="96.8659903 24.164152 100.086517 24.164152 100.086517 12.2530615 96.8659903 12.2530615"></polygon>
                    <polygon id="Fill-24" fill="#FFFFFF" mask="url(#mask-2)" points="109.647307 24.164062 105.83523 18.465745 105.83523 24.164062 102.614703 24.164062 102.614703 8.83056158 105.83523 8.83056158 105.83523 17.545423 109.410627 12.2529715 113.120113 12.2529715 109.091154 17.9251908 113.549376 24.164062"></polygon>
                    <polygon id="Stroke-25" stroke="#FFFFFF" stroke-width="0.5" mask="url(#mask-2)" points="109.647307 24.164062 105.83523 18.465745 105.83523 24.164062 102.614703 24.164062 102.614703 8.83056158 105.83523 8.83056158 105.83523 17.545423 109.410627 12.2529715 113.120113 12.2529715 109.091154 17.9251908 113.549376 24.164062"></polygon>
                    <path d="M122.903154,18.1905483 C122.903154,16.3193069 121.53137,14.925625 119.660728,14.925625 C117.789487,14.925625 116.413804,16.3232066 116.413804,18.1905483 C116.413804,20.05789 117.789487,21.4554716 119.660728,21.4554716 C121.53137,21.4554716 122.903154,20.0617897 122.903154,18.1905483 L122.903154,18.1905483 Z M126.059486,12.235153 L126.059486,24.1459436 L123.5346,24.1459436 L123.258024,23.0804339 C122.23511,23.975858 120.900823,24.5008135 119.398251,24.5008135 C115.815054,24.5008135 113.14948,21.7962427 113.14948,18.1905483 C113.14948,14.5989527 115.815054,11.9162801 119.398251,11.9162801 C120.926921,11.9162801 122.281906,12.4547344 123.311419,13.3729566 L123.65579,12.2345531 L126.059486,12.235153 Z" id="Fill-26" fill="#FFFFFF" mask="url(#mask-2)"></path>
                    <path d="M122.903154,18.1905483 C122.903154,16.3193069 121.53137,14.925625 119.660728,14.925625 C117.789487,14.925625 116.413804,16.3232066 116.413804,18.1905483 C116.413804,20.05789 117.789487,21.4554716 119.660728,21.4554716 C121.53137,21.4554716 122.903154,20.0617897 122.903154,18.1905483 Z M126.059486,12.235153 L126.059486,24.1459436 L123.5346,24.1459436 L123.258024,23.0804339 C122.23511,23.975858 120.900823,24.5008135 119.398251,24.5008135 C115.815054,24.5008135 113.14948,21.7962427 113.14948,18.1905483 C113.14948,14.5989527 115.815054,11.9162801 119.398251,11.9162801 C120.926921,11.9162801 122.281906,12.4547344 123.311419,13.3729566 L123.65579,12.2345531 L126.059486,12.235153 Z" id="Stroke-27" stroke="#FFFFFF" stroke-width="0.5" mask="url(#mask-2)"></path>
                    <path d="M99.5041467,10.3936391 C98.3633434,11.1681735 96.9321647,11.0499835 96.3076176,10.1299615 C95.6830706,9.20993943 96.1015351,7.83635585 97.2423384,7.06182149 C98.3831417,6.28728713 99.8140205,6.40547712 100.438868,7.32549914 C101.063415,8.24552117 100.64495,9.61910475 99.5041467,10.3936391" id="Fill-28" fill="#FFFFFF" mask="url(#mask-2)"></path>
                    <text id="©" mask="url(#mask-2)" font-family="ArialMT, Arial" font-size="2.73333834" font-weight="normal" fill="#000000">
                        <tspan x="0.164056096" y="33.2895379">©</tspan>
                    </text>
                </g>
            </g>
        </g>
    </g>
</svg>